…
```{r,}
library(ExprCompareR)
?ExprCompareR::compareCancerProtein

``` 
<br>

ExprCompareR's pathology function depends on user input i.e. their choice of the cancer of interest. <br>
Let us consider the following example as sample input the user provides:

```{r pathology,eval=FALSE}

output <- compareCancerProtein(cancer_type = "breast cancer")
output$table
# A tibble: 5,378 × 6
   ensembl         gene     normal_rank cancer_rank delta_rank direction
   <chr>           <chr>          <dbl>       <dbl>      <dbl> <chr>    
 1 ENSG00000000003 TSPAN6          1          1.75       0.75  Up       
 2 ENSG00000000419 DPM1            2          2          0     No change
 3 ENSG00000000457 SCYL3           1.67       0.583     -1.08  Down     
 4 ENSG00000000460 C1orf112        2          1.67      -0.333 Down     
 5 ENSG00000001167 NFYA            1.33       2          0.667 Up       
 6 ENSG00000001461 NIPAL3          1.33       1.83       0.5   Up       
 7 ENSG00000001629 ANKIB1          1.67       1.83       0.167 Up       
 8 ENSG00000002330 BAD             1.33       2.08       0.75  Up       
 9 ENSG00000002549 LAP3            1.67       2.1        0.433 Up       
10 ENSG00000002746 HECW1           2          2.5        0.5   Up       
# ℹ 5,368 more rows
# ℹ Use `print(n = ...)` to see more rows
```
…
